56f9216e4d11968fafa74bbfb920f6d6cd6f61c361ed23e44d4e2d07a045bf65  showdown16x9.png
abf8e385145229177fa716e4c4207df6dfd624a7f178e64688ebf5c1591c9753  showdown.png
a3638c0636d0f7319f7239f3713a26f4820809925dee993f5988c4197bff4d43  dte16x9.png
1b9e5b3b5db299e5df39db8492122ce4390378e828cbd70a7fdd1fe3698a9298  dte.png
